{
	"package": "olang-html",
	"publisher": {
		"name": "Oytun",
		"email": "info@oytun.org",
		"github": "https://github.com/oytunistrator"
	},
	"sources": "src",
	"main": "src/main.ola",
	"type": "library"
}